<?xml version="1.0" encoding="UTF-8"?>
<svg width="822px" height="596px" viewBox="0 0 822 596" version="1.1" xmlns="http://www.w3.org/2000/svg" xmlns:xlink="http://www.w3.org/1999/xlink">
    <!-- Generator: Sketch 60.1 (88133) - https://sketch.com -->
    <title>Group 12</title>
    <desc>Created with Sketch.</desc>
    <defs>
        <rect id="path-1" x="0" y="0" width="402" height="307" rx="10"></rect>
        <filter x="-13.1%" y="-17.1%" width="126.1%" height="134.2%" filterUnits="objectBoundingBox" id="filter-2">
            <feMorphology radius="5" operator="dilate" in="SourceAlpha" result="shadowSpreadOuter1"></feMorphology>
            <feOffset dx="0" dy="0" in="shadowSpreadOuter1" result="shadowOffsetOuter1"></feOffset>
            <feGaussianBlur stdDeviation="12.5" in="shadowOffsetOuter1" result="shadowBlurOuter1"></feGaussianBlur>
            <feColorMatrix values="0 0 0 0 0.185688406   0 0 0 0 0.185688406   0 0 0 0 0.185688406  0 0 0 0.1 0" type="matrix" in="shadowBlurOuter1"></feColorMatrix>
        </filter>
    </defs>
    <g id="Website" stroke="none" stroke-width="1" fill="none" fill-rule="evenodd">
        <g id="Landing-Page-/-logged-out-user---without-map" transform="translate(-309.000000, -1141.000000)">
            <g id="Group-12" transform="translate(309.000000, 1141.000000)">
                <g id="Group-5" transform="translate(623.000000, 2.000000)">
                    <circle id="Oval" fill="#0A6A84" cx="99.5" cy="99.5" r="99.5"></circle>
                    <g id="noun_Location_383767" transform="translate(66.000000, 43.000000)" fill="#FFFFFF" fill-rule="nonzero">
                        <path d="M34.8345695,0.0802733501 C27.7969994,-0.0394266444 21.2463731,5.04327536 19.5808586,11.8722648 C18.1655011,17.1542682 19.7778201,23.0045067 23.6578114,26.8429684 C26.2547742,29.8890162 28.99901,32.7923921 31.5164038,35.7802719 C31.527051,35.7928321 31.5379923,35.8051401 31.5492184,35.8171857 C32.3647113,36.6996057 33.1780791,37.7648243 34.1537096,38.7005843 C34.358517,38.8969394 34.6340645,39.0020622 34.9176143,38.9920181 C35.2011641,38.9819739 35.4685827,38.8576177 35.6589833,38.6472632 C38.6332803,35.3689534 41.4604094,32.0366084 44.3871079,28.7624986 C44.388475,28.7625012 44.3898421,28.7625012 44.3912092,28.7624986 C45.1764936,27.8725186 45.9642666,26.9821522 46.7496078,26.0923823 C46.7638454,26.0750512 46.7775241,26.0572683 46.7906229,26.0390612 C47.8823183,24.6247112 49.1374232,22.750455 49.7601529,20.7193351 C52.0472796,14.1946352 49.3982894,6.53881634 43.6242178,2.76679672 L43.6160131,2.76679672 C41.0364404,1.0166568 37.9457677,0.0769133503 34.8345695,0.0802733501 Z M34.8058583,2.17617174 L34.8058583,2.18027325 C34.8126937,2.18034 34.8195295,2.18034 34.8263648,2.18027325 C37.5170023,2.18027325 40.2174447,2.99406921 42.4429679,4.50585914 C42.4497086,4.51278913 42.4565448,4.5196257 42.4634744,4.5263669 C47.3984111,7.74020675 49.7359945,14.5058552 47.7749978,20.0630852 C47.7692424,20.0766403 47.7637728,20.090315 47.7585926,20.1041003 C47.2698933,21.7064002 46.1465571,23.4458238 45.1335928,24.7593737 C45.1335928,24.7593737 45.1294894,24.7593737 45.1294894,24.7593737 C44.3595454,25.6317137 43.5862078,26.5036211 42.8162093,27.376171 C40.1265273,30.3850509 37.5366163,33.4053883 34.8714833,36.3749982 C34.3062557,35.7489882 33.750621,35.1157795 33.1242183,34.4349595 L33.107811,34.4144509 C33.102141,34.4144509 33.0968637,34.4149444 33.0914037,34.3939444 C30.5305399,31.3573445 27.7922828,28.4635699 25.25332,25.48535 C25.2325165,25.4611222 25.2106188,25.4378559 25.187695,25.4156237 C21.8234027,22.1305939 20.3874381,16.9508194 21.6070292,12.4095696 C21.6098653,12.4014006 21.6126004,12.3931968 21.6152339,12.3849603 C23.025197,6.55746056 28.8081998,2.07012175 34.8058583,2.17617174 Z M34.8140609,9.02167919 C32.3421678,9.0006792 30.0245365,10.4012806 28.8585935,12.5695305 C26.8134309,16.0975304 28.6394396,20.8832737 32.4925761,22.1835937 C36.2821289,23.6813115 40.7533373,21.1798651 41.4749981,17.1755851 C42.4389821,13.0656753 39.0305163,8.8977792 34.8140609,9.02167919 Z M34.8140609,11.1134759 L34.8140609,11.1175774 C34.829098,11.1179005 34.8441403,11.1179005 34.8591773,11.1175774 C37.622017,11.0251774 40.08093,14.0302117 39.4324206,16.7203116 C39.4277067,16.7406923 39.4236029,16.7612093 39.4201146,16.7818351 C38.9598303,19.4141852 35.7249989,21.2259076 33.2431623,20.2271476 C33.2229184,20.2182992 33.2024003,20.2100918 33.1816386,20.2025377 C30.6493243,19.3619078 29.3257448,15.9087141 30.6755848,13.6031242 C30.6826677,13.5909583 30.6895053,13.5786511 30.6960934,13.5662102 C31.4798848,12.0989403 33.1544877,11.0966759 34.8140609,11.1134759 Z M9.44179655,20.099999 C7.74141088,20.099999 6.29999971,21.459604 6.29999971,23.1597639 L6.29999971,54.8443336 C6.29999971,55.1811715 6.3683041,55.498074 6.47226523,55.7999973 L2.79316388,55.7999973 C1.14876152,55.7999973 0,57.3191373 0,58.9499972 C0,60.5808571 1.1487615,62.099999 2.79316388,62.099999 L64.4068333,62.099999 C66.0512361,62.099999 67.1999969,60.5808571 67.1999969,58.9499972 C67.1999969,57.3191373 66.0512361,55.7999973 64.4068333,55.7999973 L60.7277321,55.7999973 C60.8316926,55.498074 60.8999972,55.1811715 60.8999972,54.8443336 L60.8999972,23.1597639 C60.8999972,21.459604 59.4585867,20.099999 57.7582,20.099999 L52.1267562,20.099999 C52.0150572,20.5268701 51.8918691,20.9544532 51.7453102,21.3755851 C51.6557053,21.6633145 51.5348251,21.9244222 51.4294891,22.1999989 L57.7582,22.1999989 C58.3769922,22.1999989 58.7999973,22.6341339 58.7999973,23.1597639 L58.7999973,54.8443336 C58.7999973,55.3699635 58.3769922,55.7999973 57.7582,55.7999973 L9.44179655,55.7999973 C8.82300407,55.7999973 8.39999962,55.3699635 8.39999962,54.8443336 L8.39999962,23.1597639 C8.39999962,22.6341339 8.82300428,22.1999989 9.44179655,22.1999989 L18.1904289,22.1999989 C17.9247277,21.5139289 17.7007007,20.8132597 17.5218742,20.099999 L9.44179655,20.099999 Z M10.4999995,24.2999988 L10.4999995,25.3499987 L10.4999995,53.6999974 L56.6999974,53.6999974 L56.6999974,24.2999988 L50.4574201,24.2999988 C50.0320756,25.0652513 49.5860503,25.7670755 49.1326142,26.3999987 L54.5999975,26.3999987 L54.5999975,51.5999975 L12.5999994,51.5999975 L12.5999994,26.3999987 L20.5078116,26.3999987 C20.0068551,25.7308841 19.5649175,25.0286735 19.1666006,24.2999988 L10.4999995,24.2999988 Z M2.79316388,57.8999972 L64.4068333,57.8999972 C64.6924564,57.8999972 65.0999999,58.2540572 65.0999999,58.9499972 C65.0999999,59.6459372 64.6924564,59.9999971 64.4068333,59.9999971 L2.79316388,59.9999971 C2.50754122,59.9999971 2.0999999,59.6459372 2.0999999,58.9499972 C2.0999999,58.2540572 2.50754122,57.8999972 2.79316388,57.8999972 Z" id="Shape"></path>
                    </g>
                    <text id="corona-help.org" font-family="Inter-Bold, Inter" font-size="18" font-weight="bold" fill="#FFFFFF">
                        <tspan x="28.196733" y="140">corona-help.org</tspan>
                    </text>
                </g>
                <g id="Group-6" transform="translate(311.000000, 0.000000)" fill="#0A6A84">
                    <circle id="Oval" opacity="0.1" cx="99.5" cy="99.5" r="99.5"></circle>
                    <text id="Call-Center" font-family="Inter-Bold, Inter" font-size="18" font-weight="bold">
                        <tspan x="50.278054" y="143">Call Center</tspan>
                    </text>
                    <g id="noun_callcenter_3144457" transform="translate(72.000000, 46.000000)" fill-rule="nonzero">
                        <circle id="Oval" cx="14.8400001" cy="32.4800001" r="1.40000001"></circle>
                        <circle id="Oval" cx="22.6800001" cy="32.4800001" r="1.40000001"></circle>
                        <path d="M17.9200001,36.9600002 L20.1600001,36.9600002 C20.778559,36.9600002 21.2800001,36.4585591 21.2800001,35.8400002 C21.2800001,35.2214412 20.778559,34.7200001 20.1600001,34.7200001 L19.4740001,34.7200001 L20.1024601,32.8342001 C20.2335872,32.4533837 20.1501451,32.0314858 19.8839265,31.7292556 C19.6177078,31.4270254 19.2097127,31.2910091 18.8153932,31.3730309 C18.4210737,31.4550527 18.1011585,31.7424805 17.9775401,32.1258001 L16.8575401,35.4858002 C16.7436865,35.8273341 16.8009501,36.2027778 17.0114415,36.4948419 C17.2219329,36.786906 17.5599888,36.9600002 17.9200001,36.9600002 Z" id="Path"></path>
                        <path d="M21.7809201,39.6729202 C22.3341824,39.3962697 22.5584206,38.7234925 22.2817701,38.1702302 C22.0051196,37.6169679 21.3323424,37.3927297 20.7790801,37.6693802 C19.6836149,38.2138421 18.3963853,38.2138421 17.3009201,37.6693802 C16.7476578,37.3927297 16.0748806,37.6169679 15.7982301,38.1702302 C15.5215796,38.7234925 15.7458178,39.3962697 16.2990801,39.6729202 C18.0255729,40.5312126 20.0544273,40.5312126 21.7809201,39.6729202 L21.7809201,39.6729202 Z" id="Path"></path>
                        <path d="M13.4400001,47.0400002 L7.56000003,47.0400002 C3.38667829,47.0447065 0.00470633776,50.4266785 0,54.6000002 L0,66.0800003 C0,66.6985592 0.501441082,67.2 1.12,67.2 L36.9600002,67.2 C37.5785591,67.2 38.0800002,66.6985592 38.0800002,66.0800003 L38.0800002,54.6000002 C38.0752938,50.4266785 34.6933219,47.0447065 30.5200001,47.0400002 L24.6400001,47.0400002 C24.021729,47.0393058 23.5206945,46.5382713 23.5200001,45.9200002 L23.5200001,43.5946002 C25.24602,42.5935117 26.5909406,41.0478355 27.3438201,39.2 L29.1200001,39.2 L29.1200001,40.9761802 L27.2080201,42.8880202 C26.9250729,43.1709674 26.8145695,43.5833719 26.9181353,43.969885 C27.0217012,44.3563981 27.3236023,44.6582991 27.7101153,44.761865 C28.0966284,44.8654309 28.5090329,44.7549274 28.7919801,44.4719802 L31.0319801,42.2319802 C31.2420184,42.0219311 31.360011,41.7370468 31.3600001,41.4400002 L31.3600001,39.2 C33.2148133,39.197917 34.717917,37.6948134 34.7200001,35.8400002 L34.7200001,32.4800001 C34.7202382,31.5246071 34.3127855,30.6145107 33.6000001,29.9783401 L33.6000001,25.7600001 C33.6000001,17.7187341 27.0812661,11.2 19.0400001,11.2 C10.9987341,11.2 4.48000002,17.7187341 4.48000002,25.7600001 L4.48000002,29.9783401 C3.76721465,30.6145107 3.359762,31.5246071 3.36000001,32.4800001 L3.36000001,35.8400002 C3.36208317,37.6948134 4.86518682,39.197917 6.72000003,39.2 L10.73618,39.2 C11.4890596,41.0478355 12.8339801,42.5935117 14.5600001,43.5946002 L14.5600001,45.9200002 C14.5593057,46.5382713 14.0582711,47.0393058 13.4400001,47.0400002 L13.4400001,47.0400002 Z M2.24000001,64.9600003 L2.24000001,57.1200002 L6.58322003,57.1200002 C5.32409057,59.4407162 5.27544754,62.2295659 6.45288003,64.5927803 L6.63600003,64.9600003 L2.24000001,64.9600003 Z M35.8400002,64.9600003 L31.4921601,64.9600003 L31.6758401,64.5927803 C32.8532726,62.2295659 32.8046296,59.4407162 31.5455001,57.1200002 L35.8400002,57.1200002 L35.8400002,64.9600003 Z M26.8637601,54.6901602 L25.9333201,49.2800002 L30.5200001,49.2800002 C33.4567797,49.2833178 35.8366826,51.6632206 35.8400002,54.6000002 L35.8400002,54.8800002 L31.3600001,54.8800002 L31.3600001,52.6400002 C31.3600001,52.0214413 30.8585591,51.5200002 30.24,51.5200002 C29.6214412,51.5200002 29.1200001,52.0214413 29.1200001,52.6400002 L29.1200001,57.1200002 C29.1200058,57.341141 29.1854766,57.5573311 29.3081601,57.7413202 C30.4677273,59.4855008 30.6065516,61.7164605 29.6721601,63.5909403 L29.2381601,64.4589403 C29.1603728,64.6145093 29.1199159,64.7860676 29.1200001,64.9600003 L9.00872004,64.9600003 C9.00873903,64.7861037 8.96823464,64.6145952 8.89042004,64.4590803 L8.45642004,63.5910803 C7.52223452,61.7165587 7.66105204,59.4857078 8.82042004,57.7414602 C8.94317949,57.5574471 9.00870056,57.3412032 9.00872004,57.1200002 L9.00872004,52.6400002 C9.00872004,52.0214413 8.50727896,51.5200002 7.88872003,51.5200002 C7.27016111,51.5200002 6.76872003,52.0214413 6.76872003,52.6400002 L6.76872003,54.8800002 L2.24000001,54.8800002 L2.24000001,54.6000002 C2.24331758,51.6632206 4.62322043,49.2833178 7.56000003,49.2800002 L12.1178401,49.2800002 L11.21526,54.6959002 C11.1344573,55.1808522 11.3793614,55.6618023 11.8190801,55.8817002 L17.9200001,58.9321603 L17.9200001,60.4800003 L20.1600001,60.4800003 L20.1600001,58.9321603 L26.2609201,55.8817002 C26.7025601,55.6608373 26.9474485,55.1768044 26.8637601,54.6901602 L26.8637601,54.6901602 Z M22.9804401,48.8408202 L19.0400001,55.9337802 L15.0995601,48.8408202 C16.1500604,48.2435209 16.7992395,47.1284359 16.8000001,45.9200002 L16.8000001,44.5165002 C18.2694128,44.8945025 19.8105874,44.8945025 21.2800001,44.5165002 L21.2800001,45.9200002 C21.2807607,47.1284359 21.9299397,48.2435209 22.9804401,48.8408202 L22.9804401,48.8408202 Z M24.0675401,51.6474002 L24.5155401,54.2501402 L21.8290801,55.5940002 L24.0675401,51.6474002 Z M32.4800001,32.4800001 L32.4800001,35.8400002 C32.4793058,36.4582712 31.9782712,36.9593058 31.3600001,36.9600002 L28.0000001,36.9600002 L28.0000001,31.3600001 L31.3600001,31.3600001 C31.9782712,31.3606945 32.4793058,31.8617291 32.4800001,32.4800001 L32.4800001,32.4800001 Z M10.08,35.8400002 L10.08,36.9600002 L6.72000003,36.9600002 C6.10172896,36.9593058 5.60069441,36.4582712 5.60000002,35.8400002 L5.60000002,32.4800001 C5.60069441,31.8617291 6.10172896,31.3606945 6.72000003,31.3600001 L10.08,31.3600001 L10.08,35.8400002 Z M8.96000004,25.7600001 L8.96000004,29.1200001 L6.72000003,29.1200001 L6.72000003,25.7600001 C6.72000003,18.955852 12.2358519,13.4400001 19.0400001,13.4400001 C25.8441482,13.4400001 31.3600001,18.955852 31.3600001,25.7600001 L31.3600001,29.1200001 L29.1200001,29.1200001 L29.1200001,25.7600001 C29.12,20.1929699 24.6070303,15.6800002 19.0400001,15.6800002 C13.4729698,15.6800002 8.96000012,20.1929699 8.96000004,25.7600001 Z M11.2,25.7600001 C11.2,22.9590378 12.6942955,20.3708419 15.12,18.9703608 C17.5457045,17.5698796 20.5342957,17.5698796 22.9600001,18.9703608 C25.3857046,20.3708419 26.8800001,22.9590378 26.8800001,25.7600001 L26.8800001,28.9784601 C24.2994681,27.5924633 22.051128,25.6619844 20.2907601,23.3207801 L19.9360001,22.8480001 C19.7244832,22.5659776 19.3925283,22.4000001 19.0400001,22.4000001 C18.6874719,22.4000001 18.355517,22.5659776 18.1440001,22.8480001 L17.7892401,23.3210601 C16.0288124,25.6621352 13.7804812,27.5925109 11.2,28.9784601 L11.2,25.7600001 Z M12.3200001,35.8400002 L12.3200001,30.9197001 C14.9016229,29.5220331 17.1845762,27.632366 19.0400001,25.3573601 C20.8953879,27.6324019 23.1783488,29.5220752 25.7600001,30.9197001 L25.7600001,35.8400002 C25.7600001,39.5513537 22.7513536,42.5600002 19.0400001,42.5600002 C15.3286465,42.5600002 12.3200001,39.5513537 12.3200001,35.8400002 Z M16.3027201,55.6192002 L13.5606801,54.2481802 L14.0177801,51.5061402 L16.3027201,55.6192002 Z" id="Shape"></path>
                        <circle id="Oval" cx="47.8331002" cy="8.99500004" r="1.82000001"></circle>
                        <circle id="Oval" cx="41.4863402" cy="8.99500004" r="1.82000001"></circle>
                        <circle id="Oval" cx="54.1797202" cy="8.99500004" r="1.82000001"></circle>
                        <path d="M57.4000002,17.9550001 C59.7185088,17.9523769 61.5973771,16.0735086 61.6000001,13.7550001 L61.6000001,4.23500002 C61.5973771,1.91649149 59.7185088,0.0376231863 57.4000002,0.0350000001 L37.8000002,0.0350000001 C35.4814916,0.0376231863 33.6026233,1.91649149 33.6000001,4.23500002 L33.6000001,13.7550001 C33.6026233,16.0735086 35.4814916,17.9523769 37.8000002,17.9550001 L40.3200002,17.9550001 L40.3200002,22.4000001 C40.3199992,22.8071491 40.5409492,23.1822288 40.8970589,23.379602 C41.2531685,23.5769752 41.6883388,23.565549 42.0336002,23.3497601 L50.6660002,17.9550001 L57.4000002,17.9550001 Z M49.7504002,15.8852401 L42.5600002,20.3792401 L42.5600002,16.8350001 C42.5600002,16.2164411 42.0585591,15.7150001 41.4400002,15.7150001 L37.8000002,15.7150001 C36.7180018,15.7138426 35.8411576,14.8369984 35.8400002,13.7550001 L35.8400002,4.23500002 C35.8411576,3.15300169 36.7180018,2.27615743 37.8000002,2.27500001 L57.4000002,2.27500001 C58.4819986,2.27615743 59.3588428,3.15300169 59.3600003,4.23500002 L59.3600003,13.7550001 C59.3588428,14.8369984 58.4819986,15.7138426 57.4000002,15.7150001 L50.3440002,15.7150001 C50.1340899,15.7149993 49.9284041,15.7739884 49.7504002,15.8852401 Z" id="Shape"></path>
                    </g>
                </g>
                <g id="Group-7" transform="translate(623.000000, 306.000000)">
                    <circle id="Oval-Copy" fill="#FFE56B" cx="99.5" cy="99.5" r="99.5"></circle>
                    <text id="Freiwillige" font-family="Inter-Bold, Inter" font-size="18" font-weight="bold" fill="#2F2F2F">
                        <tspan x="56.0223722" y="139">Freiwillige</tspan>
                    </text>
                    <g id="noun_secretary_1870798" transform="translate(79.000000, 44.000000)" fill="#2F2F2F" fill-rule="nonzero">
                        <path d="M36,38.059 L36,25.645 C37.2218348,25.0721725 38.0021991,23.8444486 38.0021991,22.495 C38.0021991,21.1455514 37.2218348,19.9178275 36,19.345 L36,11.93 C36,8.816 33.679,6.246 31.692,4.991 L31.315,4.752 C29.7575303,3.64423929 28.0690512,2.73332715 26.288,2.04 C19.272,-0.567 16.361,2.224 15.437,3.54 L15,3.54 C12.7600314,3.63565123 10.7145692,4.83983462 9.544,6.752 C8.317,8.543 8,9.829 8,13 L8,19.347 C6.77816523,19.9198275 5.99780093,21.1475514 5.99780093,22.497 C5.99780093,23.8464486 6.77816523,25.0741725 8,25.647 C8,25.654 8,25.66 8,25.667 L8,38.059 C3.44826162,38.5724713 0.006208808,42.4193956 0,47 L0,61 L44,61 L44,47 C43.9937912,42.4193956 40.5517384,38.5724713 36,38.059 Z M36,22.5 C36,23.3284271 35.3284271,24 34.5,24 L33,24 L33,21 L34.5,21 C35.3284271,21 36,21.6715729 36,22.5 Z M17,33.782 L17,38 L10,38 L10,26 L11.191,26 C11.8186818,29.3531962 13.9636981,32.2267573 17,33.782 L17,33.782 Z M13,24 L13,20.189 L16.365,11.775 L18.547,13.958 C20.4523572,15.8678765 22.7279099,17.3682372 25.234,18.367 L31,20.673 L31,24 C31,28.9705627 26.9705627,33 22,33 C17.0294373,33 13,28.9705627 13,24 Z M15.731,40.958 L15.856,41.258 L18.728,48.152 L15.076,45.543 L15.731,40.958 Z M17.5,40 L18,40 C18.5522847,40 19,39.5522847 19,39 L19,34.57 C20.959669,35.1380209 23.040331,35.1380209 25,34.57 L25,39 C25,39.5522847 25.4477153,40 26,40 L26.5,40 L22.331,50 L21.669,50 L17.5,40 Z M28.263,40.969 L28.896,45.539 L25.277,48.139 L28.263,40.969 Z M28,38 L27,38 L27,33.782 C30.0363019,32.2267573 32.1813182,29.3531962 32.809,26 L34,26 L34,38 L28,38 Z M10,13 C10,10.069 10.27,9.232 11.2,7.877 C12.0024957,6.51715808 13.4245253,5.64111299 15,5.536 L16,5.536 C16.3970721,5.53539818 16.7561714,5.2999232 16.915,4.936 C16.931,4.9 18.615,1.296 25.649,3.936 C25.696404,3.95302931 25.7448331,3.96705706 25.794,3.978 C27.3540951,4.64646601 28.8429345,5.470286 30.238,6.437 L30.624,6.682 C32.3,7.743 34,9.777 34,11.93 L34,19 L32.192,19 L25.977,16.51 C23.7225332,15.6114338 21.6753597,14.261851 19.961,12.544 L16.707,9.289 C16.4692779,9.05113222 16.127914,8.94868054 15.7984969,9.0163359 C15.4690797,9.08399125 15.1957277,9.31269263 15.071,9.625 L11.323,19 L10,19 L10,13 Z M8,22.5 C8,21.6715729 8.67157288,21 9.5,21 L11,21 L11,24 L9.5,24 C8.67157288,24 8,23.3284271 8,22.5 Z M2,59 L2,54 L7.085,54 C7.03479235,54.2392728 7.00634298,54.4825986 7,54.727 L7,55.581 C6.99968482,56.782002 7.31745842,57.9616631 7.921,59 L2,59 Z M18,54 L18,59 L10.415,59 C9.50611534,58.0947326 8.99667598,56.8637975 9,55.581 L9,54.727 C9.00023176,54.4041352 9.07554906,54.0857484 9.22,53.797 L10.7,50.836 C10.8966487,50.441127 10.9993233,50.0061292 11,49.565 L11,48 C11,47.4477153 10.5522847,47 10,47 C9.44771525,47 9,47.4477153 9,48 L9,49.565 C9.00025072,49.6955809 8.96976193,49.8243875 8.911,49.941 L7.882,52 L2,52 L2,47 C2.00440864,43.1358343 5.13583434,40.0044086 9,40 L13.847,40 L13.01,45.858 C12.957306,46.2277322 13.1150318,46.5960163 13.419,46.813 L20.333,51.75 L18.4,53.2 C18.1481942,53.3888544 18,53.6852427 18,54 Z M42,59 L36.079,59 C36.6830302,57.9618668 37.00084,56.7820713 37,55.581 L37,54.727 C36.993657,54.4825986 36.9652076,54.2392728 36.915,54 L42,54 L42,59 Z M42,52 L36.118,52 L35.089,49.941 C35.0302381,49.8243875 34.9997493,49.6955809 35,49.565 L35,48 C35,47.4477153 34.5522847,47 34,47 C33.4477153,47 33,47.4477153 33,48 L33,49.565 C33.0006767,50.0061292 33.1033513,50.441127 33.3,50.836 L34.78,53.8 C34.9244509,54.0887484 34.9997682,54.4071352 35,54.73 L35,55.584 C35.0021903,56.8656924 34.4928632,58.0952765 33.585,59 L20,59 L20,54.5 L23.587,51.81 L30.552,46.81 C30.8531277,46.5935966 31.0097815,46.2283275 30.959,45.861 L30.148,40 L35,40 C38.8641657,40.0044086 41.9955914,43.1358343 42,47 L42,52 Z" id="Shape"></path>
                        <path d="M17,23 C17.5522847,23 18,22.5522847 18,22 L18,21 C18,20.4477153 17.5522847,20 17,20 C16.4477153,20 16,20.4477153 16,21 L16,22 C16,22.5522847 16.4477153,23 17,23 Z" id="Path"></path>
                        <path d="M27,23 C27.5522847,23 28,22.5522847 28,22 L28,21 C28,20.4477153 27.5522847,20 27,20 C26.4477153,20 26,20.4477153 26,21 L26,22 C26,22.5522847 26.4477153,23 27,23 Z" id="Path"></path>
                        <path d="M20.553,24.9 L22.553,25.9 C22.8727527,26.0596977 23.2534141,26.0366785 23.5515928,25.8396134 C23.8497714,25.6425483 24.0201669,25.3013762 23.9985928,24.9446134 C23.9770187,24.5878505 23.7667527,24.2696977 23.447,24.11 L22.341,23.558 L22.895,22.447 C23.1362059,21.953506 22.934214,21.3578378 22.4425873,21.1128484 C21.9509605,20.867859 21.3537584,21.0652696 21.105,21.555 L20.105,23.555 C19.9853831,23.792654 19.9654037,24.0681783 20.0494827,24.3206032 C20.1335618,24.573028 20.3147669,24.7815406 20.553,24.9 Z" id="Path"></path>
                        <rect id="Rectangle" x="23" y="55" width="2" height="2"></rect>
                        <path d="M19.553,28.9 C21.0942464,29.6667119 22.9057536,29.6667119 24.447,28.9 C24.9412949,28.6531287 25.1418713,28.0522949 24.895,27.558 C24.6481287,27.0637051 24.0472949,26.8631287 23.553,27.11 C22.5749432,27.597033 21.4250568,27.597033 20.447,27.11 C19.9527052,26.8631287 19.3518713,27.0637052 19.105,27.558 C18.8581287,28.0522949 19.0587052,28.6531287 19.553,28.9 L19.553,28.9 Z" id="Path"></path>
                    </g>
                </g>
                <g id="Group-8">
                    <circle id="Oval-Copy-2" fill="#FFE56B" cx="99.5" cy="99.5" r="99.5"></circle>
                    <text id="Hilfsbedürftige" font-family="Inter-Bold, Inter" font-size="18" font-weight="bold" fill="#2F2F2F">
                        <tspan x="33.1935369" y="141">Hilfsbedürftige</tspan>
                    </text>
                    <g id="noun_Teacher_1847682" transform="translate(75.000000, 53.000000)" fill="#2F2F2F" fill-rule="nonzero">
                        <path d="M41,35 L30,35 L30,29.581 C31.3881807,28.7406966 32.5404638,27.5619203 33.349,26.155 L33.733,25.482 C34.3459373,24.4079738 34.7455944,23.2256407 34.91,22 L36.5,22 C38.4329966,22 40,20.4329966 40,18.5 C39.9975756,17.6364824 39.673085,16.8049305 39.09,16.168 C40.3369876,15.2955012 41.0553341,13.8492709 40.9971061,12.3284679 C40.9388781,10.8076649 40.112051,9.42059573 38.802,8.646 C38.9327326,8.27805049 38.9996943,7.890484 39,7.5 C39,5.56700338 37.4329966,4 35.5,4 C34.7633643,4.0065629 34.0480262,4.24792823 33.458,4.689 C31.6357295,1.77224632 28.4392036,0.000218485263 25,0.000218485263 C21.5607964,0.000218485263 18.3642705,1.77224632 16.542,4.689 C15.9518428,4.24817784 15.2365887,4.0068409 14.5,4 C12.5670034,4 11,5.56700338 11,7.5 C11.0009477,7.89059955 11.0685864,8.27816936 11.2,8.646 C9.88994898,9.42059573 9.06312195,10.8076649 9.00489391,12.3284679 C8.94666588,13.8492709 9.66501242,15.2955012 10.912,16.168 C10.3281877,16.8046292 10.0029707,17.6362149 10,18.5 C10,20.4329966 11.5670034,22 13.5,22 L15.09,22 C15.2544056,23.2256407 15.6540627,24.4079738 16.267,25.482 L16.651,26.155 C17.4595362,27.5619203 18.6118193,28.7406966 20,29.581 L20,35 L9,35 C4.03172183,35.0055111 0.00551112896,39.0317218 0,44 L0,58 L50,58 L50,44 C49.9944889,39.0317218 45.9682782,35.0055111 41,35 Z M17,37 L19,37 L19,42 C19.0000685,42.3603432 19.1940002,42.6927828 19.5076399,42.8702014 C19.8212795,43.04762 20.2061174,43.0425768 20.515,42.857 L24,40.766 L24,51.166 C23.3646182,51.0774223 22.7444601,50.9017725 22.157,50.644 L21.157,50.199 C18.6293902,49.0739182 17.0006181,46.5666984 17,43.8 L17,37 Z M29,37.767 L29,40.233 L26.944,39 L29,37.767 Z M23.056,39 L21,40.233 L21,37.767 L23.056,39 Z M26,40.766 L29.485,42.857 C29.7938826,43.0425768 30.1787205,43.04762 30.4923601,42.8702014 C30.8059998,42.6927828 30.9999315,42.3603432 31,42 L31,37 L33,37 L33,43.8 C32.9997768,46.567061 31.3709409,49.0747707 28.843,50.2 L27.843,50.645 C27.2553895,50.9017416 26.6352363,51.0763805 26,51.164 L26,40.766 Z M38,18.5 C38,19.3284271 37.3284271,20 36.5,20 L35,20 L35,17 L36.5,17 C37.3284271,17 38,17.6715729 38,18.5 Z M35.5,5.99994615 C36.0876184,5.99501606 36.6231323,6.3363272 36.8667389,6.87109448 C37.1103455,7.40586177 37.0164113,8.03391017 36.627,8.474 C36.4012999,8.73481407 36.3259376,9.09352855 36.4276001,9.42311812 C36.5292625,9.75270769 36.7935972,10.0066421 37.127,10.095 C38.1066632,10.3441546 38.8386213,11.1606418 38.9796542,12.1616052 C39.1206871,13.1625686 38.6428277,14.1495156 37.7701476,14.6596601 C36.8974674,15.1698045 35.8030203,15.101984 35,14.488 L35,10 C34.9977616,8.81621768 34.783722,7.64238659 34.368,6.534 C34.64814,6.19779861 35.0623882,6.00238472 35.5,5.99994615 Z M25,2 C29.4162219,2.00495988 32.9950401,5.58377808 33,10 L33,20.712 C33,20.953 32.976,21.193 32.953,21.432 L31.6,20.251 C30.4609943,19.2799833 28.9300795,18.904392 27.471,19.238 L25.455,19.679 L25.118,19 L25.895,17.447 C26.1418713,16.9527052 25.9412948,16.3518713 25.447,16.105 C24.9527051,15.8581287 24.3518713,16.0587052 24.105,16.553 L23.105,18.553 C22.9840651,18.8073134 22.9767952,19.1010148 23.085,19.361 L22.526,19.238 C21.0678687,18.9053948 19.5383029,19.280928 18.4,20.251 L17.049,21.433 C17.026,21.193 17.002,20.953 17.002,20.712 L17.002,10 C17.0069576,5.58455778 20.5845592,2.00606163 25,2 Z M23.152,21.422 L22.529,22.149 C21.7245661,22.9914566 20.4780675,23.2386761 19.413,22.767 L18.844,22.518 L19.715,21.757 C20.3792878,21.2104208 21.2588826,21.0015032 22.098,21.191 L23.152,21.422 Z M25,22.339 L25.514,22.939 C25.1737884,22.9970093 24.8262116,22.9970093 24.486,22.939 L25,22.339 Z M27.471,22.149 L26.848,21.422 L27.902,21.191 C28.741437,21.0005543 29.6217501,21.2095548 30.286,21.757 L31.156,22.518 L30.587,22.767 C29.5217619,23.2371349 28.2761799,22.9900971 27.471,22.149 L27.471,22.149 Z M12.869,10.1 C13.2024028,10.0116421 13.4667375,9.75770769 13.5683999,9.42811812 C13.6700624,9.09852855 13.5947001,8.73981407 13.369,8.479 C13.0222737,8.07546852 12.9171669,7.51761378 13.0932723,7.01557428 C13.2693777,6.51353478 13.6999407,6.14358226 14.2227723,6.04507426 C14.745604,5.94656626 15.2812738,6.13446849 15.628,6.538 C15.2146919,7.6455371 15.002035,8.81785876 15,10 L15,14.531 C14.967,14.548 14.93,14.552 14.9,14.573 C14.0785697,15.1382238 12.9994875,15.1601006 12.1558234,14.628634 C11.3121594,14.0971675 10.8659375,13.114425 11.0210521,12.1294553 C11.1761667,11.1444857 11.9028283,10.3464507 12.869,10.1 L12.869,10.1 Z M12,18.5 C12,17.6715729 12.6715729,17 13.5,17 L15,17 L15,20 L13.5,20 C12.6715729,20 12,19.3284271 12,18.5 Z M18.388,25.163 L18,24.49 C17.963,24.426 17.938,24.356 17.9,24.29 L18.605,24.599 C19.9283957,25.1752552 21.4414357,25.1219533 22.721,24.454 L22.758,24.473 C24.1679087,25.1729437 25.8240913,25.1729437 27.234,24.473 L27.267,24.456 C28.5465643,25.1239533 30.0596043,25.1772552 31.383,24.601 L32.083,24.292 C32.048,24.358 32.023,24.428 31.983,24.492 L31.598,25.165 C30.2422925,27.537967 27.7189316,29.0024769 24.986,29.0024769 C22.2530684,29.0024769 19.7297075,27.537967 18.374,25.165 L18.388,25.163 Z M25,31 C26.0202683,30.9944196 27.0330714,30.8256191 28,30.5 L28,35.5 L25,37.75 L22,35.5 L22,30.5 C22.9669286,30.8256191 23.9797317,30.9944196 25,31 Z M2,44 C2.00407452,40.5234178 4.55907331,37.5766526 8,37.08 L8,50 L2,50 L2,44 Z M2,52 L8,52 L8,56 L2,56 L2,52 Z M10,56 L10,37 L15,37 L15,43.8 C15.0019591,47.3561137 17.0960682,50.5781817 20.345,52.024 L21.345,52.469 C23.6721874,53.5019852 26.3278126,53.5019852 28.655,52.469 L29.655,52.024 C32.9039318,50.5781817 34.9980409,47.3561137 35,43.8 L35,37 L40,37 L40,56 L10,56 Z M48,56 L42,56 L42,52 L48,52 L48,56 Z M48,50 L42,50 L42,37.08 C45.4409267,37.5766526 47.9959255,40.5234178 48,44 L48,50 Z" id="Shape"></path>
                        <path d="M20,18 C20.5522847,18 21,17.5522847 21,17 L21,16 C21,15.4477153 20.5522847,15 20,15 C19.4477153,15 19,15.4477153 19,16 L19,17 C19,17.5522847 19.4477153,18 20,18 Z" id="Path"></path>
                        <path d="M29,16 L29,17 C29,17.5522847 29.4477153,18 30,18 C30.5522847,18 31,17.5522847 31,17 L31,16 C31,15.4477153 30.5522847,15 30,15 C29.4477153,15 29,15.4477153 29,16 Z" id="Path"></path>
                        <path d="M21,9 L29,9 C29.5522847,9 30,8.55228475 30,8 C30,7.44771525 29.5522847,7 29,7 L21,7 C20.4477153,7 20,7.44771525 20,8 C20,8.55228475 20.4477153,9 21,9 Z" id="Path"></path>
                        <path d="M21,13 L29,13 C29.5522847,13 30,12.5522847 30,12 C30,11.4477153 29.5522847,11 29,11 L21,11 C20.4477153,11 20,11.4477153 20,12 C20,12.5522847 20.4477153,13 21,13 Z" id="Path"></path>
                        <rect id="Rectangle" x="28" y="45" width="2" height="2"></rect>
                    </g>
                </g>
                <g id="Molecules-/-Arrow-/-left" transform="translate(100.500000, 317.437956) rotate(90.000000) translate(-100.500000, -317.437956) translate(10.500000, 305.937956)" stroke="#2F2F2F" stroke-linecap="round" stroke-linejoin="round">
                    <g id="Molecules-/-Arrow-/-&lt;-" transform="translate(1.000000, 0.000000)">
                        <line x1="1" y1="12.5" x2="179" y2="12.5" id="Line-2" stroke-width="3"></line>
                        <g id="Group-5" stroke-width="3">
                            <line x1="0" y1="12.5" x2="12" y2="0" id="Line-2"></line>
                            <line x1="0" y1="12.5" x2="12" y2="24" id="Line-2"></line>
                        </g>
                    </g>
                </g>
                <g id="Molecules-/-Arrow-/-left" transform="translate(255.000000, 100.000000) scale(-1, 1) translate(-255.000000, -100.000000) translate(229.500000, 88.000000)" stroke="#2F2F2F" stroke-linecap="round" stroke-linejoin="round">
                    <g id="Molecules-/-Arrow-/-&lt;-" transform="translate(1.000000, 0.000000)">
                        <line x1="1" y1="12.5" x2="50" y2="12.5" id="Line-2" stroke-width="3"></line>
                        <g id="Group-5" stroke-width="3">
                            <line x1="0" y1="12.5" x2="12" y2="0" id="Line-2"></line>
                            <line x1="0" y1="12.5" x2="12" y2="24" id="Line-2"></line>
                        </g>
                    </g>
                </g>
                <g id="Molecules-/-Arrow-/-left" transform="translate(721.500000, 253.000000) rotate(-90.000000) translate(-721.500000, -253.000000) translate(696.000000, 241.000000)" stroke="#2F2F2F" stroke-linecap="round" stroke-linejoin="round">
                    <g id="Molecules-/-Arrow-/-&lt;-" transform="translate(1.000000, 0.000000)">
                        <line x1="1" y1="12.5" x2="50" y2="12.5" id="Line-2" stroke-width="3"></line>
                        <g id="Group-5" stroke-width="3">
                            <line x1="0" y1="12.5" x2="12" y2="0" id="Line-2"></line>
                            <line x1="0" y1="12.5" x2="12" y2="24" id="Line-2"></line>
                        </g>
                    </g>
                </g>
                <g id="Molecules-/-Arrow-/-left" transform="translate(566.500000, 101.000000) scale(-1, 1) translate(-566.500000, -101.000000) translate(541.000000, 89.000000)" stroke="#2F2F2F" stroke-linecap="round" stroke-linejoin="round">
                    <g id="Molecules-/-Arrow-/-&lt;-" transform="translate(1.000000, 0.000000)">
                        <line x1="1" y1="12.5" x2="50" y2="12.5" id="Line-2" stroke-width="3"></line>
                        <g id="Group-5" stroke-width="3">
                            <line x1="0" y1="12.5" x2="12" y2="0" id="Line-2"></line>
                            <line x1="0" y1="12.5" x2="12" y2="24" id="Line-2"></line>
                        </g>
                    </g>
                </g>
                <line x1="101.5" y1="407.5" x2="586.5" y2="407.5" id="Line-3" stroke="#2F2F2F" stroke-width="3" stroke-linecap="round" stroke-linejoin="round"></line>
                <g id="Group-4" transform="translate(143.000000, 254.000000)">
                    <g id="Rectangle">
                        <use fill="black" fill-opacity="1" filter="url(#filter-2)" xlink:href="#path-1"></use>
                        <use fill="#FFFFFF" fill-rule="evenodd" xlink:href="#path-1"></use>
                    </g>
                    <text id="Hilfe-zum-Beispiel-b" font-family="Inter-Bold, Inter" font-size="20" font-weight="bold" fill="#2F2F2F">
                        <tspan x="31" y="55">Hilfe zum Beispiel bei:</tspan>
                    </text>
                    <g id="Group-11" transform="translate(31.000000, 77.000000)">
                        <text id="Einkäufe" font-family="Inter-Regular, Inter" font-size="18" font-weight="normal" fill="#2F2F2F">
                            <tspan x="37" y="22">Einkäufe</tspan>
                        </text>
                        <g id="Icons-/-check-circle">
                            <g>
                                <rect id="Rectangle-Copy-67" x="0" y="0" width="30" height="30"></rect>
                                <g id="check-circle" transform="translate(5.000000, 4.000000)" stroke="#2F2F2F" stroke-linecap="round" stroke-linejoin="round" stroke-width="2">
                                    <path d="M20,10.08 L20,11 C19.9974678,15.4286859 17.082294,19.328213 12.8353524,20.583901 C8.58841086,21.839589 4.02139355,20.1523121 1.61095509,16.4370663 C-0.799483376,12.7218205 -0.479136554,7.86363898 2.39827419,4.49707214 C5.27568494,1.13050531 10.0247126,0.0575252842 14.07,1.86" id="Path"></path>
                                    <polyline id="Path" points="20 3 10 13.01 7 10.01"></polyline>
                                </g>
                            </g>
                        </g>
                    </g>
                    <g id="Group-11-Copy" transform="translate(31.000000, 117.000000)">
                        <text id="Online-Einkäufe" font-family="Inter-Regular, Inter" font-size="18" font-weight="normal" fill="#2F2F2F">
                            <tspan x="37" y="22">Online-Einkäufe</tspan>
                        </text>
                        <g id="Icons-/-check-circle">
                            <g>
                                <rect id="Rectangle-Copy-67" x="0" y="0" width="30" height="30"></rect>
                                <g id="check-circle" transform="translate(5.000000, 4.000000)" stroke="#2F2F2F" stroke-linecap="round" stroke-linejoin="round" stroke-width="2">
                                    <path d="M20,10.08 L20,11 C19.9974678,15.4286859 17.082294,19.328213 12.8353524,20.583901 C8.58841086,21.839589 4.02139355,20.1523121 1.61095509,16.4370663 C-0.799483376,12.7218205 -0.479136554,7.86363898 2.39827419,4.49707214 C5.27568494,1.13050531 10.0247126,0.0575252842 14.07,1.86" id="Path"></path>
                                    <polyline id="Path" points="20 3 10 13.01 7 10.01"></polyline>
                                </g>
                            </g>
                        </g>
                    </g>
                    <g id="Group-11-Copy-2" transform="translate(31.000000, 157.000000)">
                        <text id="Tierpflege" font-family="Inter-Regular, Inter" font-size="18" font-weight="normal" fill="#2F2F2F">
                            <tspan x="37" y="22">Tierpflege</tspan>
                        </text>
                        <g id="Icons-/-check-circle">
                            <g>
                                <rect id="Rectangle-Copy-67" x="0" y="0" width="30" height="30"></rect>
                                <g id="check-circle" transform="translate(5.000000, 4.000000)" stroke="#2F2F2F" stroke-linecap="round" stroke-linejoin="round" stroke-width="2">
                                    <path d="M20,10.08 L20,11 C19.9974678,15.4286859 17.082294,19.328213 12.8353524,20.583901 C8.58841086,21.839589 4.02139355,20.1523121 1.61095509,16.4370663 C-0.799483376,12.7218205 -0.479136554,7.86363898 2.39827419,4.49707214 C5.27568494,1.13050531 10.0247126,0.0575252842 14.07,1.86" id="Path"></path>
                                    <polyline id="Path" points="20 3 10 13.01 7 10.01"></polyline>
                                </g>
                            </g>
                        </g>
                    </g>
                    <g id="Group-11-Copy-3" transform="translate(31.000000, 197.000000)">
                        <text id="Kinderbetreuung" font-family="Inter-Regular, Inter" font-size="18" font-weight="normal" fill="#2F2F2F">
                            <tspan x="37" y="22">Kinderbetreuung</tspan>
                        </text>
                        <g id="Icons-/-check-circle">
                            <g>
                                <rect id="Rectangle-Copy-67" x="0" y="0" width="30" height="30"></rect>
                                <g id="check-circle" transform="translate(5.000000, 4.000000)" stroke="#2F2F2F" stroke-linecap="round" stroke-linejoin="round" stroke-width="2">
                                    <path d="M20,10.08 L20,11 C19.9974678,15.4286859 17.082294,19.328213 12.8353524,20.583901 C8.58841086,21.839589 4.02139355,20.1523121 1.61095509,16.4370663 C-0.799483376,12.7218205 -0.479136554,7.86363898 2.39827419,4.49707214 C5.27568494,1.13050531 10.0247126,0.0575252842 14.07,1.86" id="Path"></path>
                                    <polyline id="Path" points="20 3 10 13.01 7 10.01"></polyline>
                                </g>
                            </g>
                        </g>
                    </g>
                    <g id="Group-11-Copy-4" transform="translate(31.000000, 237.000000)">
                        <text id="oder-einfach-nur-red" font-family="Inter-Regular, Inter" font-size="18" font-weight="normal" fill="#2F2F2F">
                            <tspan x="37" y="22">oder einfach nur reden …</tspan>
                        </text>
                        <g id="Icons-/-check-circle">
                            <g>
                                <rect id="Rectangle-Copy-67" x="0" y="0" width="30" height="30"></rect>
                                <g id="check-circle" transform="translate(5.000000, 4.000000)" stroke="#2F2F2F" stroke-linecap="round" stroke-linejoin="round" stroke-width="2">
                                    <path d="M20,10.08 L20,11 C19.9974678,15.4286859 17.082294,19.328213 12.8353524,20.583901 C8.58841086,21.839589 4.02139355,20.1523121 1.61095509,16.4370663 C-0.799483376,12.7218205 -0.479136554,7.86363898 2.39827419,4.49707214 C5.27568494,1.13050531 10.0247126,0.0575252842 14.07,1.86" id="Path"></path>
                                    <polyline id="Path" points="20 3 10 13.01 7 10.01"></polyline>
                                </g>
                            </g>
                        </g>
                    </g>
                </g>
            </g>
        </g>
    </g>
</svg>