<?xml version="1.0" encoding="UTF-8"?>
<svg width="254px" height="44px" viewBox="0 0 254 44" version="1.1" xmlns="http://www.w3.org/2000/svg" xmlns:xlink="http://www.w3.org/1999/xlink">
    <!-- Generator: Sketch 60.1 (88133) - https://sketch.com -->
    <title>Group 5</title>
    <desc>Created with Sketch.</desc>
    <defs>
        <polygon id="path-1" points="0 0.488339971 53.0232568 0.488339971 53.0232568 26.9999384 0 26.9999384"></polygon>
        <polygon id="path-3" points="0.151319991 0.356399979 8.15951951 0.356399979 8.15951951 8.3642995 0.151319991 8.3642995"></polygon>
        <polygon id="path-5" points="0.0358799979 0.356399979 8.04347952 0.356399979 8.04347952 8.3642995 0.0358799979 8.3642995"></polygon>
        <polygon id="path-7" points="0.455999973 0.356399979 8.4635995 0.356399979 8.4635995 8.3642995 0.455999973 8.3642995"></polygon>
        <polygon id="path-9" points="0.307079982 0.488339971 53.3279968 0.488339971 53.3279968 26.9999384 0.307079982 26.9999384"></polygon>
    </defs>
    <g id="Symbols" stroke="none" stroke-width="1" fill="none" fill-rule="evenodd">
        <g id="Organisms-/-Primary-Nav-/-logged-out" transform="translate(-50.000000, -34.000000)">
            <g id="Group-4">
                <g transform="translate(50.000000, 23.000000)">
                    <g id="Group" transform="translate(0.000000, 11.000000)">
                        <g id="Group-5">
                            <path d="M102.136364,26.2130682 C103.107008,26.2130682 103.947443,26.0355114 104.65767,25.6803977 C105.367898,25.3252841 105.925426,24.8316761 106.330256,24.1995739 C106.735085,23.5674716 106.961174,22.8347538 107.008523,22.0014205 L107.008523,22.0014205 L104.153409,22.0014205 C104.096591,22.3849432 103.977036,22.7128314 103.794744,22.9850852 C103.612453,23.257339 103.382812,23.4644886 103.105824,23.6065341 C102.828835,23.7485795 102.517519,23.8196023 102.171875,23.8196023 C101.703125,23.8196023 101.293561,23.6917614 100.943182,23.4360795 C100.592803,23.1803977 100.321733,22.8087121 100.129972,22.3210227 C99.9382102,21.8333333 99.8423295,21.2414773 99.8423295,20.5454545 C99.8423295,19.8589015 99.9393939,19.2741477 100.133523,18.7911932 C100.327652,18.3082386 100.598722,17.9401042 100.946733,17.6867898 C101.294744,17.4334754 101.703125,17.3068182 102.171875,17.3068182 C102.725852,17.3068182 103.174479,17.4737216 103.517756,17.8075284 C103.861032,18.1413352 104.072917,18.5804924 104.153409,19.125 L104.153409,19.125 L107.008523,19.125 C106.965909,18.282197 106.736269,17.5482955 106.319602,16.9232955 C105.902936,16.2982955 105.337121,15.8129735 104.622159,15.4673295 C103.907197,15.1216856 103.073864,14.9488636 102.122159,14.9488636 C101.018939,14.9488636 100.067235,15.1867898 99.2670455,15.662642 C98.4668561,16.1384943 97.850142,16.7990057 97.4169034,17.6441761 C96.9836648,18.4893466 96.7670455,19.4706439 96.7670455,20.5880682 C96.7670455,21.6912879 96.9812973,22.6666667 97.4098011,23.5142045 C97.8383049,24.3617424 98.4538352,25.0234375 99.256392,25.4992898 C100.058949,25.975142 101.018939,26.2130682 102.136364,26.2130682 Z M113.883523,26.2130682 C114.986742,26.2130682 115.939631,25.9775095 116.742187,25.506392 C117.544744,25.0352746 118.163826,24.3771307 118.599432,23.5319602 C119.035038,22.6867898 119.252841,21.7054924 119.252841,20.5880682 C119.252841,19.4611742 119.035038,18.475142 118.599432,17.6299716 C118.163826,16.7848011 117.544744,16.1266572 116.742187,15.6555398 C115.939631,15.1844223 114.986742,14.9488636 113.883523,14.9488636 C112.780303,14.9488636 111.827415,15.1844223 111.024858,15.6555398 C110.222301,16.1266572 109.60322,16.7848011 109.167614,17.6299716 C108.732008,18.475142 108.514205,19.4611742 108.514205,20.5880682 C108.514205,21.7054924 108.732008,22.6867898 109.167614,23.5319602 C109.60322,24.3771307 110.222301,25.0352746 111.024858,25.506392 C111.827415,25.9775095 112.780303,26.2130682 113.883523,26.2130682 Z M113.897727,23.8693182 C113.391098,23.8693182 112.966146,23.726089 112.622869,23.4396307 C112.279593,23.1531723 112.021544,22.7613636 111.848722,22.2642045 C111.6759,21.7670455 111.589489,21.2012311 111.589489,20.5667614 C111.589489,19.9322917 111.6759,19.3664773 111.848722,18.8693182 C112.021544,18.3721591 112.279593,17.9791667 112.622869,17.6903409 C112.966146,17.4015152 113.391098,17.2571023 113.897727,17.2571023 C114.399621,17.2571023 114.818655,17.4015152 115.15483,17.6903409 C115.491004,17.9791667 115.745502,18.3721591 115.918324,18.8693182 C116.091146,19.3664773 116.177557,19.9322917 116.177557,20.5667614 C116.177557,21.2012311 116.091146,21.7670455 115.918324,22.2642045 C115.745502,22.7613636 115.491004,23.1531723 115.15483,23.4396307 C114.818655,23.726089 114.399621,23.8693182 113.897727,23.8693182 Z M124.252841,26 L124.252841,19.828125 C124.252841,19.3830492 124.353456,18.9900568 124.554687,18.6491477 C124.755919,18.3082386 125.03054,18.0419034 125.378551,17.850142 C125.726562,17.6583807 126.123106,17.5625 126.568182,17.5625 C126.776515,17.5625 127.006155,17.579072 127.257102,17.6122159 C127.508049,17.6453598 127.704545,17.6832386 127.846591,17.7258523 L127.846591,17.7258523 L127.846591,15.0411932 C127.714015,15.0080492 127.560133,14.9820076 127.384943,14.9630682 C127.209754,14.9441288 127.046402,14.9346591 126.894886,14.9346591 C126.284091,14.9346591 125.744318,15.1086648 125.275568,15.4566761 C124.806818,15.8046875 124.473011,16.3172348 124.274148,16.9943182 L124.274148,16.9943182 L124.160511,16.9943182 L124.160511,15.0909091 L121.227273,15.0909091 L121.227273,26 L124.252841,26 Z M133.819602,26.2130682 C134.922822,26.2130682 135.87571,25.9775095 136.678267,25.506392 C137.480824,25.0352746 138.099905,24.3771307 138.535511,23.5319602 C138.971117,22.6867898 139.18892,21.7054924 139.18892,20.5880682 C139.18892,19.4611742 138.971117,18.475142 138.535511,17.6299716 C138.099905,16.7848011 137.480824,16.1266572 136.678267,15.6555398 C135.87571,15.1844223 134.922822,14.9488636 133.819602,14.9488636 C132.716383,14.9488636 131.763494,15.1844223 130.960937,15.6555398 C130.158381,16.1266572 129.539299,16.7848011 129.103693,17.6299716 C128.668087,18.475142 128.450284,19.4611742 128.450284,20.5880682 C128.450284,21.7054924 128.668087,22.6867898 129.103693,23.5319602 C129.539299,24.3771307 130.158381,25.0352746 130.960937,25.506392 C131.763494,25.9775095 132.716383,26.2130682 133.819602,26.2130682 Z M133.833807,23.8693182 C133.327178,23.8693182 132.902225,23.726089 132.558949,23.4396307 C132.215672,23.1531723 131.957623,22.7613636 131.784801,22.2642045 C131.611979,21.7670455 131.525568,21.2012311 131.525568,20.5667614 C131.525568,19.9322917 131.611979,19.3664773 131.784801,18.8693182 C131.957623,18.3721591 132.215672,17.9791667 132.558949,17.6903409 C132.902225,17.4015152 133.327178,17.2571023 133.833807,17.2571023 C134.335701,17.2571023 134.754735,17.4015152 135.090909,17.6903409 C135.427083,17.9791667 135.681581,18.3721591 135.854403,18.8693182 C136.027225,19.3664773 136.113636,19.9322917 136.113636,20.5667614 C136.113636,21.2012311 136.027225,21.7670455 135.854403,22.2642045 C135.681581,22.7613636 135.427083,23.1531723 135.090909,23.4396307 C134.754735,23.726089 134.335701,23.8693182 133.833807,23.8693182 Z M144.18892,26 L144.18892,19.6931818 C144.193655,19.2244318 144.282434,18.8231534 144.455256,18.4893466 C144.628078,18.1555398 144.869555,17.9010417 145.179687,17.7258523 C145.48982,17.5506629 145.848485,17.4630682 146.255682,17.4630682 C146.861742,17.4630682 147.337595,17.6512784 147.683239,18.0276989 C148.028883,18.4041193 148.199337,18.9261364 148.194602,19.59375 L148.194602,19.59375 L148.194602,26 L151.22017,26 L151.22017,19.0539773 C151.22017,18.2064394 151.06392,17.476089 150.75142,16.8629261 C150.43892,16.2497633 150.000947,15.7774621 149.4375,15.4460227 C148.874053,15.1145833 148.213542,14.9488636 147.455966,14.9488636 C146.646307,14.9488636 145.957386,15.1347064 145.389205,15.506392 C144.821023,15.8780777 144.416193,16.3811553 144.174716,17.015625 L144.174716,17.015625 L144.046875,17.015625 L144.046875,15.0909091 L141.163352,15.0909091 L141.163352,26 L144.18892,26 Z M156.710227,26.2059659 C157.25,26.2059659 157.725852,26.1337595 158.137784,25.9893466 C158.549716,25.8449337 158.902462,25.6437027 159.196023,25.3856534 C159.489583,25.1276042 159.723958,24.828125 159.899148,24.4872159 L159.899148,24.4872159 L159.984375,24.4872159 L159.984375,26 L162.853693,26 L162.853693,18.6420455 C162.853693,17.9933712 162.72822,17.4358428 162.477273,16.9694602 C162.226326,16.5030777 161.884233,16.1207386 161.450994,15.8224432 C161.017756,15.5241477 160.522964,15.3039773 159.966619,15.1619318 C159.410275,15.0198864 158.829072,14.9488636 158.223011,14.9488636 C157.351799,14.9488636 156.585937,15.0802557 155.925426,15.3430398 C155.264915,15.6058239 154.726326,15.9798769 154.309659,16.4651989 C153.892992,16.9505208 153.613636,17.5246212 153.471591,18.1875 L153.471591,18.1875 L156.269886,18.4147727 C156.374053,18.0549242 156.587121,17.7554451 156.909091,17.5163352 C157.231061,17.2772254 157.664299,17.1576705 158.208807,17.1576705 C158.724905,17.1576705 159.123816,17.2807765 159.40554,17.5269886 C159.687263,17.7732008 159.828125,18.1212121 159.828125,18.5710227 L159.828125,18.5710227 L159.828125,18.6136364 C159.828125,18.8456439 159.74053,19.0208333 159.565341,19.1392045 C159.390152,19.2575758 159.108428,19.3463542 158.72017,19.4055398 C158.331913,19.4647254 157.820549,19.5274621 157.18608,19.59375 C156.646307,19.6458333 156.131392,19.7357955 155.641335,19.8636364 C155.151278,19.9914773 154.714489,20.1808712 154.330966,20.4318182 C153.947443,20.6827652 153.644413,21.0142045 153.421875,21.4261364 C153.199337,21.8380682 153.088068,22.3470644 153.088068,22.953125 C153.088068,23.672822 153.245502,24.272964 153.560369,24.7535511 C153.875237,25.2341383 154.304924,25.5963542 154.849432,25.8401989 C155.393939,26.0840436 156.014205,26.2059659 156.710227,26.2059659 Z M157.576705,24.1178977 C157.112689,24.1178977 156.73035,24.0101799 156.429687,23.7947443 C156.129025,23.5793087 155.978693,23.265625 155.978693,22.8536932 C155.978693,22.5696023 156.052083,22.3316761 156.198864,22.1399148 C156.345644,21.9481534 156.55161,21.7954545 156.816761,21.6818182 C157.081913,21.5681818 157.392045,21.485322 157.747159,21.4332386 C157.912879,21.4095644 158.097538,21.382339 158.301136,21.3515625 C158.504735,21.320786 158.708333,21.2852746 158.911932,21.2450284 C159.11553,21.2047822 159.299006,21.1598011 159.462358,21.1100852 C159.62571,21.0603693 159.754735,21.0047348 159.849432,20.9431818 L159.849432,20.9431818 L159.849432,22.1008523 C159.849432,22.484375 159.752367,22.8276515 159.558239,23.1306818 C159.36411,23.4337121 159.096591,23.6740057 158.755682,23.8515625 C158.414773,24.0291193 158.02178,24.1178977 157.576705,24.1178977 Z M172.00142,21.2272727 L172.00142,18.8267045 L165.367898,18.8267045 L165.367898,21.2272727 L172.00142,21.2272727 Z M177.605114,26 L177.605114,19.6931818 C177.609848,19.2244318 177.700994,18.8231534 177.878551,18.4893466 C178.056108,18.1555398 178.30232,17.9010417 178.617187,17.7258523 C178.932055,17.5506629 179.295455,17.4630682 179.707386,17.4630682 C180.322917,17.4630682 180.80232,17.6500947 181.145597,18.0241477 C181.488873,18.3982008 181.658144,18.9214015 181.653409,19.59375 L181.653409,19.59375 L181.653409,26 L184.678977,26 L184.678977,19.0539773 C184.683712,18.2017045 184.528646,17.4689867 184.213778,16.8558239 C183.898911,16.242661 183.45857,15.7715436 182.892756,15.4424716 C182.326941,15.1133996 181.665246,14.9488636 180.90767,14.9488636 C180.079072,14.9488636 179.390152,15.132339 178.840909,15.4992898 C178.291667,15.8662405 177.893939,16.3716856 177.647727,17.015625 L177.647727,17.015625 L177.519886,17.015625 L177.519886,11.4545455 L174.579545,11.4545455 L174.579545,26 L177.605114,26 Z M192.036932,26.2130682 C192.936553,26.2130682 193.730824,26.0745739 194.419744,25.7975852 C195.108665,25.5205966 195.672112,25.132339 196.110085,24.6328125 C196.548059,24.133286 196.838068,23.5473485 196.980114,22.875 L196.980114,22.875 L194.181818,22.6903409 C194.077652,22.9649621 193.926136,23.1969697 193.727273,23.3863636 C193.528409,23.5757576 193.289299,23.717803 193.009943,23.8125 C192.730587,23.907197 192.422822,23.9545455 192.086648,23.9545455 C191.580019,23.9545455 191.142045,23.8480114 190.772727,23.6349432 C190.403409,23.421875 190.118134,23.1188447 189.916903,22.7258523 C189.715672,22.3328598 189.615057,21.8664773 189.615057,21.3267045 L189.615057,21.3267045 L189.615,21.32 L197.044034,21.3196023 L197.044034,20.4886364 C197.044034,19.5606061 196.913826,18.7497633 196.653409,18.056108 C196.392992,17.3624527 196.029593,16.7859848 195.56321,16.3267045 C195.096828,15.8674242 194.55232,15.522964 193.929687,15.2933239 C193.307055,15.0636837 192.63589,14.9488636 191.916193,14.9488636 C190.846117,14.9488636 189.914536,15.1856061 189.121449,15.6590909 C188.328362,16.1325758 187.714015,16.7930871 187.278409,17.640625 C186.842803,18.4881629 186.625,19.4730114 186.625,20.5951705 C186.625,21.7457386 186.842803,22.7412405 187.278409,23.5816761 C187.714015,24.4221117 188.335464,25.070786 189.142756,25.5276989 C189.950047,25.9846117 190.914773,26.2130682 192.036932,26.2130682 Z M189.625513,19.3318537 C189.656421,18.983645 189.754735,18.6625631 189.920455,18.368608 C190.119318,18.0158617 190.395123,17.7341383 190.747869,17.5234375 C191.100616,17.3127367 191.506629,17.2073864 191.965909,17.2073864 C192.40625,17.2073864 192.793324,17.303267 193.127131,17.4950284 C193.460937,17.6867898 193.722538,17.9507576 193.911932,18.2869318 C194.101326,18.6231061 194.196023,19.0089962 194.196023,19.4446023 L194.196023,19.4446023 L189.62,19.445 L189.625513,19.3318537 Z M202.044034,26 L202.044034,11.4545455 L199.018466,11.4545455 L199.018466,26 L202.044034,26 Z M207.484375,30.0909091 L207.484375,24.2528409 L207.576705,24.2528409 C207.714015,24.5558712 207.912879,24.8553504 208.173295,25.1512784 C208.433712,25.4472064 208.768703,25.6922348 209.178267,25.8863636 C209.587831,26.0804924 210.086174,26.1775568 210.673295,26.1775568 C211.501894,26.1775568 212.251184,25.9633049 212.921165,25.5348011 C213.591146,25.1062973 214.121449,24.4741951 214.512074,23.6384943 C214.902699,22.8027936 215.098011,21.7765152 215.098011,20.5596591 C215.098011,19.3096591 214.89678,18.2691761 214.494318,17.4382102 C214.091856,16.6072443 213.554451,15.9846117 212.882102,15.5703125 C212.209754,15.1560133 211.475852,14.9488636 210.680398,14.9488636 C210.069602,14.9488636 209.559422,15.0518466 209.149858,15.2578125 C208.740294,15.4637784 208.408854,15.7194602 208.15554,16.024858 C207.902225,16.3302557 207.70928,16.6297348 207.576705,16.9232955 L207.576705,16.9232955 L207.441761,16.9232955 L207.441761,15.0909091 L204.458807,15.0909091 L204.458807,30.0909091 L207.484375,30.0909091 Z M209.714489,23.7698864 C209.226799,23.7698864 208.8125,23.6361269 208.471591,23.368608 C208.130682,23.101089 207.870265,22.7258523 207.690341,22.2428977 C207.510417,21.7599432 207.420455,21.1941288 207.420455,20.5454545 C207.420455,19.8967803 207.510417,19.3333333 207.690341,18.8551136 C207.870265,18.3768939 208.129498,18.0075758 208.46804,17.7471591 C208.806581,17.4867424 209.222064,17.3565341 209.714489,17.3565341 C210.211648,17.3565341 210.630682,17.4914773 210.971591,17.7613636 C211.3125,18.03125 211.570549,18.405303 211.745739,18.8835227 C211.920928,19.3617424 212.008523,19.9157197 212.008523,20.5454545 C212.008523,21.1799242 211.919744,21.7398201 211.742187,22.225142 C211.564631,22.710464 211.305398,23.0892519 210.964489,23.3615057 C210.62358,23.6337595 210.206913,23.7698864 209.714489,23.7698864 Z M218.87642,26.1846591 C219.184186,26.1846591 219.465909,26.1077178 219.721591,25.9538352 C219.977273,25.7999527 220.184422,25.5939867 220.34304,25.3359375 C220.501657,25.0778883 220.580966,24.7926136 220.580966,24.4801136 C220.580966,24.0160985 220.410511,23.6183712 220.069602,23.2869318 C219.728693,22.9554924 219.330966,22.7897727 218.87642,22.7897727 C218.40767,22.7897727 218.006392,22.9554924 217.672585,23.2869318 C217.338778,23.6183712 217.171875,24.0160985 217.171875,24.4801136 C217.171875,24.9488636 217.338778,25.350142 217.672585,25.6839489 C218.006392,26.0177557 218.40767,26.1846591 218.87642,26.1846591 Z M227.988636,26.2130682 C229.091856,26.2130682 230.044744,25.9775095 230.847301,25.506392 C231.649858,25.0352746 232.268939,24.3771307 232.704545,23.5319602 C233.140152,22.6867898 233.357955,21.7054924 233.357955,20.5880682 C233.357955,19.4611742 233.140152,18.475142 232.704545,17.6299716 C232.268939,16.7848011 231.649858,16.1266572 230.847301,15.6555398 C230.044744,15.1844223 229.091856,14.9488636 227.988636,14.9488636 C226.885417,14.9488636 225.932528,15.1844223 225.129972,15.6555398 C224.327415,16.1266572 223.708333,16.7848011 223.272727,17.6299716 C222.837121,18.475142 222.619318,19.4611742 222.619318,20.5880682 C222.619318,21.7054924 222.837121,22.6867898 223.272727,23.5319602 C223.708333,24.3771307 224.327415,25.0352746 225.129972,25.506392 C225.932528,25.9775095 226.885417,26.2130682 227.988636,26.2130682 Z M228.002841,23.8693182 C227.496212,23.8693182 227.071259,23.726089 226.727983,23.4396307 C226.384706,23.1531723 226.126657,22.7613636 225.953835,22.2642045 C225.781013,21.7670455 225.694602,21.2012311 225.694602,20.5667614 C225.694602,19.9322917 225.781013,19.3664773 225.953835,18.8693182 C226.126657,18.3721591 226.384706,17.9791667 226.727983,17.6903409 C227.071259,17.4015152 227.496212,17.2571023 228.002841,17.2571023 C228.504735,17.2571023 228.923769,17.4015152 229.259943,17.6903409 C229.596117,17.9791667 229.850616,18.3721591 230.023437,18.8693182 C230.196259,19.3664773 230.28267,19.9322917 230.28267,20.5667614 C230.28267,21.2012311 230.196259,21.7670455 230.023437,22.2642045 C229.850616,22.7613636 229.596117,23.1531723 229.259943,23.4396307 C228.923769,23.726089 228.504735,23.8693182 228.002841,23.8693182 Z M238.357955,26 L238.357955,19.828125 C238.357955,19.3830492 238.45857,18.9900568 238.659801,18.6491477 C238.861032,18.3082386 239.135653,18.0419034 239.483665,17.850142 C239.831676,17.6583807 240.22822,17.5625 240.673295,17.5625 C240.881629,17.5625 241.111269,17.579072 241.362216,17.6122159 C241.613163,17.6453598 241.809659,17.6832386 241.951705,17.7258523 L241.951705,17.7258523 L241.951705,15.0411932 C241.819129,15.0080492 241.665246,14.9820076 241.490057,14.9630682 C241.314867,14.9441288 241.151515,14.9346591 241,14.9346591 C240.389205,14.9346591 239.849432,15.1086648 239.380682,15.4566761 C238.911932,15.8046875 238.578125,16.3172348 238.379261,16.9943182 L238.379261,16.9943182 L238.265625,16.9943182 L238.265625,15.0909091 L235.332386,15.0909091 L235.332386,26 L238.357955,26 Z M247.910511,30.2471591 C248.952178,30.2471591 249.87429,30.0909091 250.676847,29.7784091 C251.479403,29.4659091 252.107955,29.0030777 252.5625,28.3899148 C253.017045,27.7767519 253.244318,27.015625 253.244318,26.1065341 L253.244318,26.1065341 L253.244318,15.0909091 L250.240057,15.0909091 L250.240057,16.9232955 L250.12642,16.9232955 C249.98911,16.6297348 249.793797,16.3302557 249.540483,16.024858 C249.287169,15.7194602 248.954545,15.4637784 248.542614,15.2578125 C248.130682,15.0518466 247.619318,14.9488636 247.008523,14.9488636 C246.208333,14.9488636 245.473248,15.1548295 244.803267,15.5667614 C244.133286,15.9786932 243.597064,16.5989583 243.194602,17.4275568 C242.79214,18.2561553 242.590909,19.2883523 242.590909,20.5241477 C242.590909,21.7315341 242.788589,22.7294034 243.183949,23.5177557 C243.579309,24.306108 244.111979,24.8908617 244.78196,25.272017 C245.451941,25.6531723 246.196496,25.84375 247.015625,25.84375 C247.593277,25.84375 248.090436,25.7585227 248.507102,25.5880682 C248.923769,25.4176136 249.264678,25.1974432 249.52983,24.9275568 C249.794981,24.6576705 249.993845,24.3712121 250.12642,24.0681818 L250.12642,24.0681818 L250.254261,24.0681818 L250.254261,26.0639205 C250.254261,26.7788826 250.040009,27.2926136 249.611506,27.6051136 C249.183002,27.9176136 248.639678,28.0738636 247.981534,28.0738636 C247.541193,28.0738636 247.168324,28.0170455 246.862926,27.9034091 C246.557528,27.7897727 246.3125,27.6441761 246.127841,27.4666193 C245.943182,27.2890625 245.808239,27.1008523 245.723011,26.9019886 L245.723011,26.9019886 L242.924716,27.2784091 C243.047822,27.8276515 243.315341,28.327178 243.727273,28.7769886 C244.139205,29.2267992 244.694366,29.5842803 245.392756,29.8494318 C246.091146,30.1145833 246.930398,30.2471591 247.910511,30.2471591 Z M247.974432,23.5710227 C247.477273,23.5710227 247.059422,23.446733 246.720881,23.1981534 C246.382339,22.9495739 246.12429,22.5968277 245.946733,22.1399148 C245.769176,21.6830019 245.680398,21.139678 245.680398,20.5099432 C245.680398,19.889678 245.767992,19.342803 245.943182,18.8693182 C246.118371,18.3958333 246.37642,18.0253314 246.71733,17.7578125 C247.058239,17.4902936 247.477273,17.3565341 247.974432,17.3565341 C248.462121,17.3565341 248.87642,17.4867424 249.21733,17.7471591 C249.558239,18.0075758 249.818655,18.3733428 249.99858,18.8444602 C250.178504,19.3155777 250.268466,19.8707386 250.268466,20.5099432 C250.268466,21.1491477 250.17732,21.6972064 249.995028,22.1541193 C249.812737,22.6110322 249.55232,22.961411 249.213778,23.2052557 C248.875237,23.4491004 248.462121,23.5710227 247.974432,23.5710227 Z" id="corona-help.org" fill="#0A6A84" fill-rule="nonzero"></path>
                            <g id="Group-16">
                                <g id="Group-3" transform="translate(0.000000, 16.443539)">
                                    <mask id="mask-2" fill="white">
                                        <use xlink:href="#path-1"></use>
                                    </mask>
                                    <g id="Clip-2"></g>
                                    <path d="M26.5116584,26.9999384 C11.8932593,26.9999384 -0.000539999968,15.1067391 -0.000539999968,0.488339971 L6.08885964,0.488339971 C6.08885964,11.7497393 15.2496591,20.9111388 26.5116584,20.9111388 C37.7730577,20.9111388 46.9338572,11.7497393 46.9338572,0.488339971 L53.0232568,0.488339971 C53.0232568,15.1067391 41.1294575,26.9999384 26.5116584,26.9999384" id="Fill-1" fill="#FFE46B" mask="url(#mask-2)"></path>
                                </g>
                                <g id="Group-6" transform="translate(7.200000, 0.243540)">
                                    <mask id="mask-4" fill="white">
                                        <use xlink:href="#path-3"></use>
                                    </mask>
                                    <g id="Clip-5"></g>
                                    <path d="M8.15951951,4.36049974 C8.15951951,6.57209961 6.36671962,8.3642995 4.15511975,8.3642995 C1.94411988,8.3642995 0.151319991,6.57209961 0.151319991,4.36049974 C0.151319991,2.14889987 1.94411988,0.356099979 4.15511975,0.356099979 C6.36671962,0.356099979 8.15951951,2.14889987 8.15951951,4.36049974" id="Fill-4" fill="#FFE46B" mask="url(#mask-4)"></path>
                                </g>
                                <g id="Group-9" transform="translate(35.399998, 0.243540)">
                                    <mask id="mask-6" fill="white">
                                        <use xlink:href="#path-5"></use>
                                    </mask>
                                    <g id="Clip-8"></g>
                                    <path d="M8.04347952,4.36049974 C8.04347952,6.57209961 6.25127963,8.3642995 4.03967976,8.3642995 C1.82867989,8.3642995 0.0358799979,6.57209961 0.0358799979,4.36049974 C0.0358799979,2.14889987 1.82867989,0.356099979 4.03967976,0.356099979 C6.25127963,0.356099979 8.04347952,2.14889987 8.04347952,4.36049974" id="Fill-7" fill="#0A6A83" mask="url(#mask-6)"></path>
                                </g>
                                <g id="Group-12" transform="translate(58.799996, 0.243540)">
                                    <mask id="mask-8" fill="white">
                                        <use xlink:href="#path-7"></use>
                                    </mask>
                                    <g id="Clip-11"></g>
                                    <path d="M8.4635995,4.36049974 C8.4635995,6.57209961 6.6713996,8.3642995 4.45979973,8.3642995 C2.24879987,8.3642995 0.455999973,6.57209961 0.455999973,4.36049974 C0.455999973,2.14889987 2.24879987,0.356099979 4.45979973,0.356099979 C6.6713996,0.356099979 8.4635995,2.14889987 8.4635995,4.36049974" id="Fill-10" fill="#0A6A83" mask="url(#mask-8)"></path>
                                </g>
                                <g id="Group-15" transform="translate(24.599999, 16.443539)">
                                    <mask id="mask-10" fill="white">
                                        <use xlink:href="#path-9"></use>
                                    </mask>
                                    <g id="Clip-14"></g>
                                    <path d="M26.8186784,26.9999384 C12.2008793,26.9999384 0.307079982,15.1067391 0.307079982,0.488339971 L6.39647962,0.488339971 C6.39647962,11.7497393 15.5572791,20.9111388 26.8186784,20.9111388 C38.0782777,20.9111388 47.2390772,11.7497393 47.2390772,0.488339971 L53.3284768,0.488339971 C53.3284768,15.1067391 41.4370775,26.9999384 26.8186784,26.9999384" id="Fill-13" fill="#0A6A83" mask="url(#mask-10)"></path>
                                </g>
                            </g>
                        </g>
                    </g>
                </g>
            </g>
        </g>
    </g>
</svg>